<?xml version="1.0" encoding="iso-8859-1"?><!-- Generator: Adobe Illustrator 19.0.0, SVG Export Plug-In . SVG Version: 6.00 Build 0)  -->
<svg version="1.1" id="Layer_1" xmlns="http://www.w3.org/2000/svg"
    xmlns:xlink="http://www.w3.org/1999/xlink" x="0px" y="0px" viewBox="0 0 469.333 469.333"
    style="enable-background:new 0 0 469.333 469.333;" xml:space="preserve">
<g>
	<g>
		<rect x="21.333" y="426.667" width="426.667" height="42.667" />
	</g>
</g>
    <g>
	<g>
		<path d="M327.253,0L64,263.253V384h120.747L448,120.747L327.253,0z M167.04,341.333h-60.373V280.96L327.253,60.373l60.373,60.373
			L167.04,341.333z" />
	</g>
</g>
    <g>
</g>
    <g>
</g>
    <g>
</g>
    <g>
</g>
    <g>
</g>
    <g>
</g>
    <g>
</g>
    <g>
</g>
    <g>
</g>
    <g>
</g>
    <g>
</g>
    <g>
</g>
    <g>
</g>
    <g>
</g>
    <g>
</g>
</svg>
